<svg width="14" height="18" viewBox="0 0 14 18" fill="none" xmlns="http://www.w3.org/2000/svg">
<path d="M2.32799 18V14.736H0.23999V13.176H2.32799V11.04H0.23999V9.21601H2.32799V0.864014H6.83999C8.93599 0.864014 10.488 1.28801 11.496 2.13601C12.52 2.98401 13.032 4.21601 13.032 5.83201C13.032 7.46401 12.48 8.74401 11.376 9.67201C10.272 10.584 8.64799 11.04 6.50399 11.04H4.48799V13.176H8.44799V14.736H4.48799V18H2.32799ZM6.19199 9.21601C7.64799 9.21601 8.77599 8.97601 9.57599 8.49601C10.392 8.01601 10.8 7.15201 10.8 5.90401C10.8 4.81601 10.464 4.00801 9.79199 3.48001C9.11999 2.95201 8.07199 2.68801 6.64799 2.68801H4.48799V9.21601H6.19199Z" fill="#212121"/>
</svg>
