<?xml version="1.0" encoding="utf-8"?>
<!-- Generator: Adobe Illustrator 16.0.0, SVG Export Plug-In . SVG Version: 6.00 Build 0)  -->
<!DOCTYPE svg PUBLIC "-//W3C//DTD SVG 1.0//EN" "http://www.w3.org/TR/2001/REC-SVG-20010904/DTD/svg10.dtd">
<svg version="1.0" id="Слой_1" xmlns="http://www.w3.org/2000/svg" xmlns:xlink="http://www.w3.org/1999/xlink" x="0px" y="0px"
	 width="40px" height="40px" viewBox="0 0 40 40" enable-background="new 0 0 40 40" xml:space="preserve">
<path fill="#EC4700" d="M13,11l7.5,14.5L27,13l1-5.5L26,3l-5-2l-4.5,0.5L13,5V11z"/>
<circle fill="#FFFFFF" cx="20.5" cy="8.5" r="4.5"/>
<path fill="#212121" d="M38.627,16.888c-0.184-0.148-0.424-0.206-0.654-0.156l-11.924,2.551l-1.338-0.286l3.529-7.067
	c0.006-0.012,0.012-0.023,0.016-0.035c0.475-1.079,0.715-2.226,0.715-3.41C28.971,3.806,25.165,0,20.487,0s-8.484,3.806-8.484,8.484
	c0,1.185,0.24,2.332,0.714,3.41c0.005,0.011,0.011,0.023,0.017,0.035l2.518,5.043l-1.126-0.241c-0.01-0.002-0.021-0.003-0.032-0.005
	c-0.015-0.003-0.03-0.006-0.045-0.007c-0.014-0.001-0.028-0.002-0.042-0.003c-0.016-0.001-0.03-0.002-0.045-0.002
	c-0.014,0-0.028,0.001-0.042,0.001c-0.015,0.001-0.029,0.002-0.044,0.003s-0.029,0.004-0.044,0.007
	c-0.011,0.002-0.022,0.003-0.033,0.005L1.711,19.317c-0.36,0.077-0.618,0.396-0.618,0.764v6.444c0,0.432,0.35,0.781,0.781,0.781
	s0.781-0.35,0.781-0.781v-5.813l10.524-2.251v17.54L2.656,38.252v-5.477c0-0.432-0.35-0.781-0.781-0.781s-0.781,0.35-0.781,0.781
	v6.443c0,0.236,0.106,0.459,0.29,0.607C1.524,39.939,1.698,40,1.875,40c0.054,0,0.109-0.006,0.164-0.018l11.923-2.551l11.923,2.551
	c0.005,0.001,0.01,0.002,0.014,0.002c0.018,0.004,0.035,0.006,0.052,0.009c0.009,0.001,0.016,0.002,0.023,0.003
	C25.998,39.998,26.023,40,26.049,40s0.051-0.002,0.074-0.004c0.009-0.001,0.017-0.002,0.023-0.003
	c0.018-0.003,0.035-0.005,0.053-0.009c0.004,0,0.009-0.001,0.014-0.002l12.086-2.586c0.36-0.077,0.618-0.396,0.618-0.764v-6.443
	c0-0.432-0.35-0.781-0.781-0.781s-0.781,0.35-0.781,0.781v5.812L26.83,38.252V20.713l10.524-2.251v5.478
	c0,0.432,0.35,0.781,0.781,0.781s0.781-0.35,0.781-0.781v-6.444C38.917,17.259,38.811,17.036,38.627,16.888z M13.565,8.484
	c0-3.816,3.105-6.921,6.921-6.921c3.816,0,6.921,3.105,6.921,6.921c0,0.96-0.193,1.891-0.574,2.764l-6.347,12.713L14.14,11.248
	C13.758,10.375,13.565,9.444,13.565,8.484z M14.743,18.461l1.401,0.299l3.644,7.298c0.132,0.264,0.403,0.432,0.699,0.432
	c0.296,0,0.567-0.168,0.699-0.432l2.805-5.619l1.277,0.273v17.539l-10.524-2.251V18.461z"/>
<path fill="#212121" d="M25.51,8.484c0-2.77-2.253-5.024-5.023-5.024s-5.024,2.254-5.024,5.024s2.254,5.023,5.024,5.023
	S25.51,11.254,25.51,8.484z M17.025,8.484c0-1.909,1.553-3.461,3.461-3.461s3.461,1.553,3.461,3.461
	c0,1.908-1.553,3.461-3.461,3.461S17.025,10.392,17.025,8.484z"/>
<path fill="#212121" d="M1.875,30.432c0.43,0,0.781-0.352,0.781-0.781c0-0.431-0.351-0.781-0.781-0.781S1.094,29.22,1.094,29.65
	C1.094,30.08,1.445,30.432,1.875,30.432z"/>
<path fill="#212121" d="M38.136,26.283c-0.431,0-0.781,0.351-0.781,0.781c0,0.43,0.351,0.781,0.781,0.781s0.781-0.352,0.781-0.781
	C38.917,26.634,38.566,26.283,38.136,26.283z"/>
</svg>
